{
  "images": [
    {
      "idiom": "universal",
      "filename": "pauseButton.png",
      "scale": "1x"
    },
    {
      "idiom": "universal",
      "filename": "pauseButton@2x.png",
      "scale": "2x"
    },
    {
      "idiom": "universal",
      "filename": "pauseButton@3x.png",
      "scale": "3x"
    }
  ],
  "info": {
    "version": 1,
    "author": "xcode"
  }
}